{
    "data": [
        {
            "id": "1e6294a9-d94a-3cef-a9a2-2251ca47d769",
            "name": "Rogers Koch",
            "is_active": false,
            "created_at": "2018-11-05 20:19:32",
            "updated_at": "2018-11-05 20:19:32",
            "email": "dnicolas@terry.net"
        },
        {
            "id": "3d660c04-f721-3c44-99b3-4ccb10869643",
            "name": "Mrs. Meggie Rowe",
            "is_active": true,
            "created_at": "2018-12-17 21:09:57",
            "updated_at": "2018-12-17 21:09:57",
            "email": "gerhold.jamarcus@gmail.com"
        },
        {
            "id": "8297143d-b336-30ee-85af-0c108a3bd486",
            "name": "Justus Roob",
            "is_active": true,
            "created_at": "2018-10-02 11:50:45",
            "updated_at": "2018-10-02 11:50:45",
            "email": "nbayer@gmail.com"
        },
        {
            "id": "c8259b3b-8603-3098-8361-425325078c9a",
            "name": "Dr. Brenda O'Reilly II",
            "is_active": false,
            "created_at": "2019-04-02 17:03:31",
            "updated_at": "2019-04-02 17:03:31",
            "email": "hodkiewicz.anastasia@feest.org"
        },
        {
            "id": "af338e87-25d3-3756-b566-c6d18e946fd0",
            "name": "Darion Wehner",
            "is_active": true,
            "created_at": "2019-06-24 04:29:31",
            "updated_at": "2019-06-24 04:29:31",
            "email": "reichel.simeon@yahoo.com"
        },
        {
            "id": "d1886568-dd5d-3022-a14e-de06d6deef26",
            "name": "Mr. Kolby Kozey",
            "is_active": false,
            "created_at": "2019-06-06 12:35:58",
            "updated_at": "2019-06-06 12:35:58",
            "email": "mark.gutmann@kessler.com"
        },
        {
            "id": "838e86e5-b781-3743-83da-462c532ecdba",
            "name": "Lukas Goldner",
            "is_active": true,
            "created_at": "2019-04-27 20:00:19",
            "updated_at": "2019-04-27 20:00:19",
            "email": "ana57@yahoo.com"
        },
        {
            "id": "4cfa2e62-0157-3298-81bc-8ebffdc521b6",
            "name": "Margret King",
            "is_active": true,
            "created_at": "2018-08-19 10:59:20",
            "updated_at": "2018-08-19 10:59:20",
            "email": "eugenia.sipes@yahoo.com"
        },
        {
            "id": "3b4b08b1-4f1e-3a15-873a-a0d94ce7f13e",
            "name": "Miss Eryn Anderson I",
            "is_active": false,
            "created_at": "2018-12-13 12:24:34",
            "updated_at": "2018-12-13 12:24:34",
            "email": "annetta.yost@hotmail.com"
        },
        {
            "id": "f0f05ab3-9aa7-3098-8e31-31729c73f284",
            "name": "Ezra Osinski PhD",
            "is_active": false,
            "created_at": "2019-02-28 23:55:29",
            "updated_at": "2019-02-28 23:55:29",
            "email": "jbrown@yahoo.com"
        },
        {
            "id": "1e84df34-b4a8-33a8-9192-2934bde65981",
            "name": "Nichole Marvin Sr.",
            "is_active": true,
            "created_at": "2018-12-02 17:31:26",
            "updated_at": "2018-12-02 17:31:26",
            "email": "dillan.turcotte@doyle.com"
        },
        {
            "id": "8242cb97-8d15-384c-ae4b-a64c88a703ce",
            "name": "Marianna Oberbrunner",
            "is_active": true,
            "created_at": "2018-12-21 14:52:42",
            "updated_at": "2018-12-21 14:52:42",
            "email": "wkiehn@gmail.com"
        },
        {
            "id": "cb7edec1-5ec9-3db3-8b1d-bd6870da7cf8",
            "name": "Deron Powlowski",
            "is_active": true,
            "created_at": "2019-03-04 16:31:28",
            "updated_at": "2019-03-04 16:31:28",
            "email": "stanton.aubrey@hotmail.com"
        },
        {
            "id": "ac6aaf9b-cf7a-337f-8180-8ebfbe3d6e0d",
            "name": "Mr. Donavon Donnelly",
            "is_active": false,
            "created_at": "2018-09-08 11:11:00",
            "updated_at": "2018-09-08 11:11:00",
            "email": "dach.fern@gmail.com"
        },
        {
            "id": "e3a23bb4-917d-394f-b79e-a71c3d28597e",
            "name": "Dr. Carrie Von V",
            "is_active": false,
            "created_at": "2019-02-06 12:09:56",
            "updated_at": "2019-02-06 12:09:56",
            "email": "dickens.ernestine@hotmail.com"
        },
        {
            "id": "37f231eb-889b-33af-9c6f-8b0dadd46dfe",
            "name": "Tressie D'Amore",
            "is_active": false,
            "created_at": "2019-03-12 12:51:06",
            "updated_at": "2019-03-12 12:51:06",
            "email": "rubie.bechtelar@hotmail.com"
        },
        {
            "id": "f08c220d-a128-38d8-aa64-77fb358dbbf1",
            "name": "Chanelle Hauck",
            "is_active": false,
            "created_at": "2019-06-04 16:08:42",
            "updated_at": "2019-06-04 16:08:42",
            "email": "chadd68@harber.com"
        },
        {
            "id": "c050cb47-c89e-3542-82a6-e23ebeb8a5aa",
            "name": "Lela Wyman",
            "is_active": true,
            "created_at": "2018-09-23 02:01:32",
            "updated_at": "2018-09-23 02:01:32",
            "email": "phomenick@rippin.com"
        },
        {
            "id": "80e865cf-3558-3d43-a11c-5c8a5986ef82",
            "name": "Miss Anika Wiegand",
            "is_active": false,
            "created_at": "2019-06-22 08:28:40",
            "updated_at": "2019-06-22 08:28:40",
            "email": "goyette.demetris@herzog.com"
        },
        {
            "id": "06f5ae0e-f7b9-31b5-b934-63f29ef58b23",
            "name": "Prof. Griffin Sipes",
            "is_active": true,
            "created_at": "2018-09-29 15:19:17",
            "updated_at": "2018-09-29 15:19:17",
            "email": "henry.leuschke@hotmail.com"
        },
        {
            "id": "80c362bd-52bd-35ae-8541-045a0ed8d3ed",
            "name": "Bobbie Denesik",
            "is_active": true,
            "created_at": "2018-12-14 11:40:34",
            "updated_at": "2018-12-14 11:40:34",
            "email": "brycen.schuster@hirthe.com"
        },
        {
            "id": "cda20d46-3ff8-3256-9cf7-2572ee7208f5",
            "name": "Myah Berge",
            "is_active": true,
            "created_at": "2019-04-11 23:54:41",
            "updated_at": "2019-04-11 23:54:41",
            "email": "demond63@harris.com"
        },
        {
            "id": "18edb636-d423-3fbc-8364-08c8d936c270",
            "name": "Erik Swaniawski",
            "is_active": true,
            "created_at": "2019-02-26 03:44:14",
            "updated_at": "2019-02-26 03:44:14",
            "email": "orlando.kihn@gmail.com"
        },
        {
            "id": "55a49896-aedb-33b8-9ec8-838ad4c7533c",
            "name": "Elaina Zulauf",
            "is_active": false,
            "created_at": "2019-06-10 00:23:48",
            "updated_at": "2019-06-10 00:23:48",
            "email": "jules59@ullrich.biz"
        },
        {
            "id": "26d0abfc-de19-37d8-8aee-da5872a4aeb7",
            "name": "Caleigh Gulgowski",
            "is_active": false,
            "created_at": "2019-04-12 02:44:52",
            "updated_at": "2019-04-12 02:44:52",
            "email": "maybelle.beier@gmail.com"
        },
        {
            "id": "a0c5bc09-c635-3198-9d28-76826c1f309f",
            "name": "Hilda Conroy",
            "is_active": true,
            "created_at": "2019-07-03 19:42:38",
            "updated_at": "2019-07-03 19:42:38",
            "email": "kohler.guido@bailey.net"
        },
        {
            "id": "21c0ad9a-ed09-3c95-84f0-d0af5c917ec5",
            "name": "Vivian Blick",
            "is_active": false,
            "created_at": "2019-03-21 21:34:02",
            "updated_at": "2019-03-21 21:34:02",
            "email": "mario69@yahoo.com"
        },
        {
            "id": "b5f3f81c-cf7f-3677-a0cb-6a0008504ca4",
            "name": "Ruby Mitchell",
            "is_active": false,
            "created_at": "2018-11-24 08:02:47",
            "updated_at": "2018-11-24 08:02:47",
            "email": "ashley31@gmail.com"
        },
        {
            "id": "2dde6ca4-c166-382b-95cf-a6d879d3fe85",
            "name": "Gilberto Runolfsdottir",
            "is_active": false,
            "created_at": "2019-02-22 21:22:39",
            "updated_at": "2019-02-22 21:22:39",
            "email": "brook.jones@krajcik.biz"
        },
        {
            "id": "03b3c22f-a32a-32ee-8918-793a5cd235f7",
            "name": "Prof. Rudolph Roob DVM",
            "is_active": false,
            "created_at": "2018-11-30 16:22:26",
            "updated_at": "2018-11-30 16:22:26",
            "email": "okrajcik@yahoo.com"
        }
    ],
    "meta": {
        "pagination": {
            "total": 200,
            "count": 200,
            "per_page": 30,
            "current_page": 1,
            "total_pages": 7,
            "links": {
                "next": "http:\\/\\/api.example.dev\\/v1\\/users?page=2"
            }
        }
    }
}
